<!--This work is licensed under a Creative Commons Attribution-ShareAlike 4.0 International License (CC BY-SA) with Design Exception 1.0-->
<eagle version="7.1.0">
<drawing>
<settings>
<setting alwaysvectorfont="no"/>
<setting verticaltext="up"/>
</settings>
<grid distance="0.1" unitdist="inch" unit="inch" style="lines" multiple="1" display="no" altdistance="0.01" altunitdist="inch" altunit="inch"/>
<layers>
<layer number="1" name="Top" color="4" fill="1" visible="yes" active="yes"/>
<layer number="16" name="Bottom" color="1" fill="1" visible="yes" active="yes"/>
<layer number="17" name="Pads" color="2" fill="1" visible="yes" active="yes"/>
<layer number="18" name="Vias" color="2" fill="1" visible="yes" active="yes"/>
<layer number="19" name="Unrouted" color="6" fill="1" visible="yes" active="yes"/>
<layer number="20" name="Dimension" color="15" fill="1" visible="yes" active="yes"/>
<layer number="21" name="tPlace" color="7" fill="1" visible="yes" active="yes"/>
<layer number="22" name="bPlace" color="7" fill="1" visible="yes" active="yes"/>
<layer number="23" name="tOrigins" color="15" fill="1" visible="yes" active="yes"/>
<layer number="24" name="bOrigins" color="15" fill="1" visible="yes" active="yes"/>
<layer number="25" name="tNames" color="7" fill="1" visible="yes" active="yes"/>
<layer number="26" name="bNames" color="7" fill="1" visible="yes" active="yes"/>
<layer number="27" name="tValues" color="7" fill="1" visible="yes" active="yes"/>
<layer number="28" name="bValues" color="7" fill="1" visible="yes" active="yes"/>
<layer number="29" name="tStop" color="7" fill="3" visible="yes" active="yes"/>
<layer number="30" name="bStop" color="7" fill="6" visible="no" active="yes"/>
<layer number="31" name="tCream" color="7" fill="4" visible="yes" active="yes"/>
<layer number="32" name="bCream" color="7" fill="5" visible="no" active="yes"/>
<layer number="33" name="tFinish" color="6" fill="3" visible="no" active="yes"/>
<layer number="34" name="bFinish" color="6" fill="6" visible="no" active="yes"/>
<layer number="35" name="tGlue" color="7" fill="4" visible="no" active="yes"/>
<layer number="36" name="bGlue" color="7" fill="5" visible="no" active="yes"/>
<layer number="37" name="tTest" color="7" fill="1" visible="no" active="yes"/>
<layer number="38" name="bTest" color="7" fill="1" visible="no" active="yes"/>
<layer number="39" name="tKeepout" color="4" fill="11" visible="yes" active="yes"/>
<layer number="40" name="bKeepout" color="1" fill="11" visible="yes" active="yes"/>
<layer number="41" name="tRestrict" color="4" fill="10" visible="yes" active="yes"/>
<layer number="42" name="bRestrict" color="1" fill="10" visible="yes" active="yes"/>
<layer number="43" name="vRestrict" color="2" fill="10" visible="yes" active="yes"/>
<layer number="44" name="Drills" color="7" fill="1" visible="no" active="yes"/>
<layer number="45" name="Holes" color="7" fill="1" visible="no" active="yes"/>
<layer number="46" name="Milling" color="3" fill="1" visible="no" active="yes"/>
<layer number="47" name="Measures" color="7" fill="1" visible="no" active="yes"/>
<layer number="48" name="Document" color="7" fill="1" visible="yes" active="yes"/>
<layer number="49" name="Reference" color="7" fill="1" visible="yes" active="yes"/>
<layer number="51" name="tDocu" color="7" fill="1" visible="yes" active="yes"/>
<layer number="52" name="bDocu" color="7" fill="1" visible="yes" active="yes"/>
<layer number="90" name="Modules" color="5" fill="1" visible="yes" active="yes"/>
<layer number="91" name="Nets" color="2" fill="1" visible="yes" active="yes"/>
<layer number="92" name="Busses" color="1" fill="1" visible="yes" active="yes"/>
<layer number="93" name="Pins" color="2" fill="1" visible="yes" active="yes"/>
<layer number="94" name="Symbols" color="4" fill="1" visible="yes" active="yes"/>
<layer number="95" name="Names" color="7" fill="1" visible="yes" active="yes"/>
<layer number="96" name="Values" color="7" fill="1" visible="yes" active="yes"/>
<layer number="97" name="Info" color="7" fill="1" visible="yes" active="yes"/>
<layer number="98" name="Guide" color="6" fill="1" visible="yes" active="yes"/>
</layers>
<library>
<packages>
<package name="XCVR_CC2650MODAMOHR">
<rectangle x1="-5.375" y1="-0.5" x2="-4.725" y2="0.5" layer="29"/>
<rectangle x1="-5.375" y1="0.65" x2="-4.725" y2="1.65" layer="29"/>
<rectangle x1="-5.375" y1="1.8" x2="-4.725" y2="2.8" layer="29"/>
<rectangle x1="-5.375" y1="-1.65" x2="-4.725" y2="-0.65" layer="29"/>
<rectangle x1="-5.375" y1="-2.8" x2="-4.725" y2="-1.8" layer="29"/>
<rectangle x1="-5.375" y1="-3.95" x2="-4.725" y2="-2.95" layer="29"/>
<rectangle x1="-5.375" y1="-5.1" x2="-4.725" y2="-4.1" layer="29"/>
<rectangle x1="-5.375" y1="-6.25" x2="-4.725" y2="-5.25" layer="29"/>
<rectangle x1="-5.375" y1="-7.4" x2="-4.725" y2="-6.4" layer="29"/>
<rectangle x1="4.725" y1="-0.5" x2="5.375" y2="0.5" layer="29"/>
<rectangle x1="4.725" y1="0.65" x2="5.375" y2="1.65" layer="29"/>
<rectangle x1="4.725" y1="1.8" x2="5.375" y2="2.8" layer="29"/>
<rectangle x1="4.725" y1="-1.65" x2="5.375" y2="-0.65" layer="29"/>
<rectangle x1="4.725" y1="-2.8" x2="5.375" y2="-1.8" layer="29"/>
<rectangle x1="4.725" y1="-3.95" x2="5.375" y2="-2.95" layer="29"/>
<rectangle x1="4.725" y1="-5.1" x2="5.375" y2="-4.1" layer="29"/>
<rectangle x1="4.725" y1="-6.25" x2="5.375" y2="-5.25" layer="29"/>
<rectangle x1="4.725" y1="-7.4" x2="5.375" y2="-6.4" layer="29"/>
<rectangle x1="-0.325" y1="-8.5" x2="0.325" y2="-7.5" layer="29" rot="R90"/>
<rectangle x1="-1.475" y1="-8.5" x2="-0.825" y2="-7.5" layer="29" rot="R90"/>
<rectangle x1="-2.625" y1="-8.5" x2="-1.975" y2="-7.5" layer="29" rot="R90"/>
<rectangle x1="-3.775" y1="-8.5" x2="-3.125" y2="-7.5" layer="29" rot="R90"/>
<rectangle x1="0.825" y1="-8.5" x2="1.475" y2="-7.5" layer="29" rot="R90"/>
<rectangle x1="1.975" y1="-8.5" x2="2.625" y2="-7.5" layer="29" rot="R90"/>
<rectangle x1="3.125" y1="-8.5" x2="3.775" y2="-7.5" layer="29" rot="R90"/>
<rectangle x1="-0.4265" y1="-5.0165" x2="0.9565" y2="-3.6335" layer="31"/>
<rectangle x1="-2.1265" y1="-5.0165" x2="-0.7435" y2="-3.6335" layer="31"/>
<rectangle x1="-0.4265" y1="-3.3165" x2="0.9565" y2="-1.9335" layer="31"/>
<rectangle x1="-2.1265" y1="-3.3165" x2="-0.7435" y2="-1.9335" layer="31"/>
<rectangle x1="-0.435" y1="-5.025" x2="0.965" y2="-3.625" layer="29"/>
<rectangle x1="-2.135" y1="-5.025" x2="-0.735" y2="-3.625" layer="29"/>
<rectangle x1="-0.435" y1="-3.325" x2="0.965" y2="-1.925" layer="29"/>
<rectangle x1="-2.135" y1="-3.325" x2="-0.735" y2="-1.925" layer="29"/>
<wire x1="-5.5" y1="8.45" x2="5.5" y2="8.45" width="0.127" layer="42"/>
<wire x1="5.5" y1="8.45" x2="5.5" y2="-8.45" width="0.127" layer="42"/>
<wire x1="5.5" y1="-8.45" x2="-5.5" y2="-8.45" width="0.127" layer="42"/>
<wire x1="-5.5" y1="-8.45" x2="-5.5" y2="8.45" width="0.127" layer="42"/>
<wire x1="-5.5" y1="8.45" x2="5.5" y2="8.45" width="0.127" layer="41"/>
<wire x1="5.5" y1="8.45" x2="5.5" y2="-8.45" width="0.127" layer="41"/>
<wire x1="5.5" y1="-8.45" x2="-5.5" y2="-8.45" width="0.127" layer="41"/>
<wire x1="-5.5" y1="-8.45" x2="-5.5" y2="8.45" width="0.127" layer="41"/>
<wire x1="-5.5" y1="8.45" x2="5.5" y2="8.45" width="0.127" layer="43"/>
<wire x1="5.5" y1="8.45" x2="5.5" y2="-8.45" width="0.127" layer="43"/>
<wire x1="5.5" y1="-8.45" x2="-5.5" y2="-8.45" width="0.127" layer="43"/>
<wire x1="-5.5" y1="-8.45" x2="-5.5" y2="8.45" width="0.127" layer="43"/>
<wire x1="-5.6" y1="8.5" x2="5.6" y2="8.5" width="0.127" layer="51"/>
<wire x1="5.6" y1="8.5" x2="5.6" y2="-8.5" width="0.127" layer="51"/>
<wire x1="5.6" y1="-8.5" x2="-5.6" y2="-8.5" width="0.127" layer="51"/>
<wire x1="-5.6" y1="-8.5" x2="-5.6" y2="8.5" width="0.127" layer="51"/>
<wire x1="-5.875" y1="8.75" x2="5.875" y2="8.75" width="0.05" layer="39"/>
<wire x1="5.875" y1="8.75" x2="5.875" y2="-8.75" width="0.05" layer="39"/>
<wire x1="5.875" y1="-8.75" x2="-5.875" y2="-8.75" width="0.05" layer="39"/>
<wire x1="-5.875" y1="-8.75" x2="-5.875" y2="8.75" width="0.05" layer="39"/>
<circle x="-6.25" y="2.75" radius="0.1" width="0.2" layer="21"/>
<text x="-5.875" y="-8.75" size="1.27" layer="25" rot="R90">&gt;NAME</text>
<text x="7.125" y="-8.75" size="1.27" layer="27" rot="R90">&gt;VALUE</text>
<smd name="1" x="-5.05" y="2.3" dx="0.55" dy="0.9" layer="1" stop="no"/>
<smd name="2" x="-5.05" y="1.15" dx="0.55" dy="0.9" layer="1" stop="no"/>
<smd name="3" x="-5.05" y="0" dx="0.55" dy="0.9" layer="1" stop="no"/>
<smd name="4" x="-5.05" y="-1.15" dx="0.55" dy="0.9" layer="1" stop="no"/>
<smd name="5" x="-5.05" y="-2.3" dx="0.55" dy="0.9" layer="1" stop="no"/>
<smd name="6" x="-5.05" y="-3.45" dx="0.55" dy="0.9" layer="1" stop="no"/>
<smd name="7" x="-5.05" y="-4.6" dx="0.55" dy="0.9" layer="1" stop="no"/>
<smd name="8" x="-5.05" y="-5.75" dx="0.55" dy="0.9" layer="1" stop="no"/>
<smd name="9" x="-5.05" y="-6.9" dx="0.55" dy="0.9" layer="1" stop="no"/>
<smd name="10" x="-3.45" y="-8" dx="0.55" dy="0.9" layer="1" rot="R90" stop="no"/>
<smd name="11" x="-2.3" y="-8" dx="0.55" dy="0.9" layer="1" rot="R90" stop="no"/>
<smd name="12" x="-1.15" y="-8" dx="0.55" dy="0.9" layer="1" rot="R90" stop="no"/>
<smd name="13" x="0" y="-8" dx="0.55" dy="0.9" layer="1" rot="R90" stop="no"/>
<smd name="14" x="1.15" y="-8" dx="0.55" dy="0.9" layer="1" rot="R90" stop="no"/>
<smd name="15" x="2.3" y="-8" dx="0.55" dy="0.9" layer="1" rot="R90" stop="no"/>
<smd name="16" x="3.45" y="-8" dx="0.55" dy="0.9" layer="1" rot="R90" stop="no"/>
<smd name="17" x="5.05" y="-6.9" dx="0.55" dy="0.9" layer="1" rot="R180" stop="no"/>
<smd name="18" x="5.05" y="-5.75" dx="0.55" dy="0.9" layer="1" rot="R180" stop="no"/>
<smd name="19" x="5.05" y="-4.6" dx="0.55" dy="0.9" layer="1" rot="R180" stop="no"/>
<smd name="20" x="5.05" y="-3.45" dx="0.55" dy="0.9" layer="1" rot="R180" stop="no"/>
<smd name="21" x="5.05" y="-2.3" dx="0.55" dy="0.9" layer="1" rot="R180" stop="no"/>
<smd name="22" x="5.05" y="-1.15" dx="0.55" dy="0.9" layer="1" rot="R180" stop="no"/>
<smd name="23" x="5.05" y="0" dx="0.55" dy="0.9" layer="1" rot="R180" stop="no"/>
<smd name="24" x="5.05" y="1.15" dx="0.55" dy="0.9" layer="1" rot="R180" stop="no"/>
<smd name="25" x="5.05" y="2.3" dx="0.55" dy="0.9" layer="1" rot="R180" stop="no"/>
<smd name="26" x="-1.435" y="-2.625" dx="1.5" dy="1.5" layer="1" stop="no" cream="no"/>
<smd name="29" x="0.265" y="-2.625" dx="1.5" dy="1.5" layer="1" stop="no" cream="no"/>
<smd name="27" x="-1.435" y="-4.325" dx="1.5" dy="1.5" layer="1" stop="no" cream="no"/>
<smd name="28" x="0.265" y="-4.325" dx="1.5" dy="1.5" layer="1" stop="no" cream="no"/>
<pad name="P$5" x="-1.435" y="-4.325" drill="0.2" diameter="0.3"/>
<pad name="P$6" x="0.265" y="-4.325" drill="0.2" diameter="0.3"/>
<pad name="P$7" x="-1.435" y="-2.625" drill="0.2" diameter="0.3"/>
<pad name="P$8" x="0.265" y="-2.625" drill="0.2" diameter="0.3"/>
</package>
</packages>
<symbols>
<symbol name="CC2650MODAMOHR">
<wire x1="-17.78" y1="22.86" x2="17.78" y2="22.86" width="0.254" layer="94"/>
<wire x1="17.78" y1="22.86" x2="17.78" y2="-22.86" width="0.254" layer="94"/>
<wire x1="17.78" y1="-22.86" x2="-17.78" y2="-22.86" width="0.254" layer="94"/>
<wire x1="-17.78" y1="-22.86" x2="-17.78" y2="22.86" width="0.254" layer="94"/>
<text x="-17.78" y="23.368" size="2.54" layer="95">&gt;NAME</text>
<text x="-17.78" y="-25.908" size="2.54" layer="96">&gt;VALUE</text>
<pin name="DIO_0" x="-22.86" y="15.24" length="middle"/>
<pin name="DIO_1" x="-22.86" y="12.7" length="middle"/>
<pin name="DIO_2" x="-22.86" y="10.16" length="middle"/>
<pin name="DIO_3" x="-22.86" y="7.62" length="middle"/>
<pin name="DIO_4" x="-22.86" y="5.08" length="middle"/>
<pin name="DIO_5/JTAG_TDO" x="-22.86" y="2.54" length="middle"/>
<pin name="DIO_6/JTAG_TDI" x="-22.86" y="0" length="middle"/>
<pin name="DIO_7" x="-22.86" y="-2.54" length="middle"/>
<pin name="DIO_8" x="-22.86" y="-5.08" length="middle"/>
<pin name="DIO_9" x="-22.86" y="-7.62" length="middle"/>
<pin name="DIO_10" x="-22.86" y="-10.16" length="middle"/>
<pin name="DIO_11" x="-22.86" y="-12.7" length="middle"/>
<pin name="DIO_12" x="-22.86" y="-15.24" length="middle"/>
<pin name="DIO_13" x="-22.86" y="-17.78" length="middle"/>
<pin name="DIO_14" x="-22.86" y="-20.32" length="middle"/>
<pin name="JTAG_TMS" x="22.86" y="12.7" length="middle" rot="R180"/>
<pin name="JTAG_TCK" x="22.86" y="15.24" length="middle" rot="R180"/>
<pin name="!RESET" x="-22.86" y="20.32" length="middle" direction="in"/>
<pin name="VDD" x="22.86" y="20.32" length="middle" direction="pwr" rot="R180"/>
<pin name="EGP" x="22.86" y="-17.78" length="middle" direction="pwr" rot="R180"/>
<pin name="GND" x="22.86" y="-20.32" length="middle" direction="pwr" rot="R180"/>
</symbol>
</symbols>
<devicesets>
<deviceset name="CC2650MODAMOHR" prefix="U">
<description>SimpleLink™ Bluetooth® low energy Wireless MCU Module 29-QFM -40 to 85</description>
<gates>
<gate name="G$1" symbol="CC2650MODAMOHR" x="0" y="0"/>
</gates>
<devices>
<device name="" package="XCVR_CC2650MODAMOHR">
<connects>
<connect gate="G$1" pin="!RESET" pad="13"/>
<connect gate="G$1" pin="DIO_0" pad="4"/>
<connect gate="G$1" pin="DIO_1" pad="5"/>
<connect gate="G$1" pin="DIO_10" pad="17"/>
<connect gate="G$1" pin="DIO_11" pad="18"/>
<connect gate="G$1" pin="DIO_12" pad="19"/>
<connect gate="G$1" pin="DIO_13" pad="20"/>
<connect gate="G$1" pin="DIO_14" pad="21"/>
<connect gate="G$1" pin="DIO_2" pad="6"/>
<connect gate="G$1" pin="DIO_3" pad="7"/>
<connect gate="G$1" pin="DIO_4" pad="8"/>
<connect gate="G$1" pin="DIO_5/JTAG_TDO" pad="11"/>
<connect gate="G$1" pin="DIO_6/JTAG_TDI" pad="12"/>
<connect gate="G$1" pin="DIO_7" pad="14"/>
<connect gate="G$1" pin="DIO_8" pad="15"/>
<connect gate="G$1" pin="DIO_9" pad="16"/>
<connect gate="G$1" pin="EGP" pad="26 27 28 29"/>
<connect gate="G$1" pin="GND" pad="1 3 25"/>
<connect gate="G$1" pin="JTAG_TCK" pad="10"/>
<connect gate="G$1" pin="JTAG_TMS" pad="9"/>
<connect gate="G$1" pin="VDD" pad="22 23"/>
</connects>
<technologies>
<technology name="">
<attribute name="MP" value="CC2650MODAMOHR"/>
<attribute name="Price" value="8.37 USD"/>
<attribute name="Description" value="SimpleLink%E2%84%A2 Bluetooth%C2%AE low energy Wireless MCU Module 29-QFM -40 to 85"/>
<attribute name="Availability" value="Good"/>
<attribute name="Package" value="SMD-29 Texas Instruments"/>
<attribute name="MF" value="Texas Instruments"/>
</technology>
</technologies>
</device>
</devices>
</deviceset>
</devicesets>
</library>
</drawing>
</eagle>
