<?xml version="1.0" encoding="utf-8"?>
<!DOCTYPE eagle SYSTEM "eagle.dtd">
<eagle version="9.0.1">
<drawing>
<settings>
<setting alwaysvectorfont="no"/>
<setting verticaltext="up"/>
</settings>
<grid distance="0.1" unitdist="inch" unit="mil" style="lines" multiple="1" display="no" altdistance="0.01" altunitdist="inch" altunit="inch"/>
<layers>
<layer number="1" name="Top" color="4" fill="1" visible="yes" active="yes"/>
<layer number="2" name="Route2" color="1" fill="3" visible="no" active="yes"/>
<layer number="3" name="Route3" color="4" fill="3" visible="no" active="yes"/>
<layer number="4" name="Route4" color="1" fill="4" visible="no" active="yes"/>
<layer number="5" name="Route5" color="4" fill="4" visible="no" active="yes"/>
<layer number="6" name="Route6" color="1" fill="8" visible="no" active="yes"/>
<layer number="7" name="Route7" color="4" fill="8" visible="no" active="yes"/>
<layer number="8" name="Route8" color="1" fill="2" visible="no" active="yes"/>
<layer number="9" name="Route9" color="4" fill="2" visible="no" active="yes"/>
<layer number="10" name="Route10" color="1" fill="7" visible="no" active="yes"/>
<layer number="11" name="Route11" color="4" fill="7" visible="no" active="yes"/>
<layer number="12" name="Route12" color="1" fill="5" visible="no" active="yes"/>
<layer number="13" name="Route13" color="4" fill="5" visible="no" active="yes"/>
<layer number="14" name="Route14" color="1" fill="6" visible="no" active="yes"/>
<layer number="15" name="Route15" color="4" fill="6" visible="no" active="yes"/>
<layer number="16" name="Bottom" color="1" fill="1" visible="yes" active="yes"/>
<layer number="17" name="Pads" color="2" fill="1" visible="yes" active="yes"/>
<layer number="18" name="Vias" color="2" fill="1" visible="yes" active="yes"/>
<layer number="19" name="Unrouted" color="6" fill="1" visible="yes" active="yes"/>
<layer number="20" name="Dimension" color="24" fill="1" visible="yes" active="yes"/>
<layer number="21" name="tPlace" color="7" fill="1" visible="yes" active="yes"/>
<layer number="22" name="bPlace" color="7" fill="1" visible="yes" active="yes"/>
<layer number="23" name="tOrigins" color="15" fill="1" visible="yes" active="yes"/>
<layer number="24" name="bOrigins" color="15" fill="1" visible="yes" active="yes"/>
<layer number="25" name="tNames" color="7" fill="1" visible="yes" active="yes"/>
<layer number="26" name="bNames" color="7" fill="1" visible="yes" active="yes"/>
<layer number="27" name="tValues" color="7" fill="1" visible="yes" active="yes"/>
<layer number="28" name="bValues" color="7" fill="1" visible="yes" active="yes"/>
<layer number="29" name="tStop" color="7" fill="3" visible="no" active="yes"/>
<layer number="30" name="bStop" color="7" fill="6" visible="no" active="yes"/>
<layer number="31" name="tCream" color="7" fill="4" visible="yes" active="yes"/>
<layer number="32" name="bCream" color="7" fill="5" visible="no" active="yes"/>
<layer number="33" name="tFinish" color="6" fill="3" visible="no" active="yes"/>
<layer number="34" name="bFinish" color="6" fill="6" visible="no" active="yes"/>
<layer number="35" name="tGlue" color="7" fill="4" visible="no" active="yes"/>
<layer number="36" name="bGlue" color="7" fill="5" visible="no" active="yes"/>
<layer number="37" name="tTest" color="7" fill="1" visible="no" active="yes"/>
<layer number="38" name="bTest" color="7" fill="1" visible="no" active="yes"/>
<layer number="39" name="tKeepout" color="4" fill="11" visible="yes" active="yes"/>
<layer number="40" name="bKeepout" color="1" fill="11" visible="yes" active="yes"/>
<layer number="41" name="tRestrict" color="4" fill="10" visible="yes" active="yes"/>
<layer number="42" name="bRestrict" color="1" fill="10" visible="yes" active="yes"/>
<layer number="43" name="vRestrict" color="2" fill="10" visible="yes" active="yes"/>
<layer number="44" name="Drills" color="7" fill="1" visible="no" active="yes"/>
<layer number="45" name="Holes" color="7" fill="1" visible="no" active="yes"/>
<layer number="46" name="Milling" color="3" fill="1" visible="no" active="yes"/>
<layer number="47" name="Measures" color="7" fill="1" visible="no" active="yes"/>
<layer number="48" name="Document" color="7" fill="1" visible="yes" active="yes"/>
<layer number="49" name="Reference" color="7" fill="1" visible="yes" active="yes"/>
<layer number="51" name="tDocu" color="7" fill="1" visible="yes" active="yes"/>
<layer number="52" name="bDocu" color="7" fill="1" visible="yes" active="yes"/>
<layer number="88" name="SimResults" color="9" fill="1" visible="yes" active="yes"/>
<layer number="89" name="SimProbes" color="9" fill="1" visible="yes" active="yes"/>
<layer number="90" name="Modules" color="5" fill="1" visible="yes" active="yes"/>
<layer number="91" name="Nets" color="2" fill="1" visible="yes" active="yes"/>
<layer number="92" name="Busses" color="1" fill="1" visible="yes" active="yes"/>
<layer number="93" name="Pins" color="2" fill="1" visible="yes" active="yes"/>
<layer number="94" name="Symbols" color="4" fill="1" visible="yes" active="yes"/>
<layer number="95" name="Names" color="7" fill="1" visible="yes" active="yes"/>
<layer number="96" name="Values" color="7" fill="1" visible="yes" active="yes"/>
<layer number="97" name="Info" color="7" fill="1" visible="yes" active="yes"/>
<layer number="98" name="Guide" color="6" fill="1" visible="yes" active="yes"/>
</layers>
<library>
<packages>
<package name="DSG_8">
<smd name="1" x="-1.0033" y="0.762" dx="0.7112" dy="0.3048" layer="1"/>
<smd name="2" x="-1.0033" y="0.254" dx="0.7112" dy="0.3048" layer="1"/>
<smd name="3" x="-1.0033" y="-0.254" dx="0.7112" dy="0.3048" layer="1"/>
<smd name="4" x="-1.0033" y="-0.762" dx="0.7112" dy="0.3048" layer="1"/>
<smd name="5" x="1.0033" y="-0.762" dx="0.7112" dy="0.3048" layer="1"/>
<smd name="6" x="1.0033" y="-0.254" dx="0.7112" dy="0.3048" layer="1"/>
<smd name="7" x="1.0033" y="0.254" dx="0.7112" dy="0.3048" layer="1"/>
<smd name="8" x="1.0033" y="0.762" dx="0.7112" dy="0.3048" layer="1"/>
<smd name="9" x="0" y="0" dx="1.016" dy="1.7018" layer="1" cream="no"/>
<polygon width="0.0254" layer="31">
<vertex x="-0.508" y="0.8509"/>
<vertex x="-0.508" y="-0.8509"/>
<vertex x="0.508" y="-0.8509"/>
<vertex x="0.508" y="0.8509"/>
</polygon>
<wire x1="-1.7018" y1="0.6858" x2="-1.7018" y2="0.8382" width="0.1524" layer="21" curve="-214"/>
<wire x1="-1.0668" y1="-1.0668" x2="1.0668" y2="-1.0668" width="0.1524" layer="51"/>
<wire x1="1.0668" y1="-1.0668" x2="1.0668" y2="1.0668" width="0.1524" layer="51"/>
<wire x1="1.0668" y1="1.0668" x2="-1.0668" y2="1.0668" width="0.1524" layer="51"/>
<wire x1="-1.0668" y1="1.0668" x2="-1.0668" y2="-1.0668" width="0.1524" layer="51"/>
<text x="-3.2766" y="-0.635" size="1.27" layer="25" ratio="6" rot="SR0">&gt;Name</text>
</package>
<package name="DSG_8-M">
<smd name="1" x="-1.0541" y="0.762" dx="0.8128" dy="0.3048" layer="1"/>
<smd name="2" x="-1.0541" y="0.254" dx="0.8128" dy="0.3048" layer="1"/>
<smd name="3" x="-1.0541" y="-0.254" dx="0.8128" dy="0.3048" layer="1"/>
<smd name="4" x="-1.0541" y="-0.762" dx="0.8128" dy="0.3048" layer="1"/>
<smd name="5" x="1.0541" y="-0.762" dx="0.8128" dy="0.3048" layer="1"/>
<smd name="6" x="1.0541" y="-0.254" dx="0.8128" dy="0.3048" layer="1"/>
<smd name="7" x="1.0541" y="0.254" dx="0.8128" dy="0.3048" layer="1"/>
<smd name="8" x="1.0541" y="0.762" dx="0.8128" dy="0.3048" layer="1"/>
<smd name="9" x="0" y="0" dx="1.016" dy="1.7018" layer="1" cream="no"/>
<polygon width="0.0254" layer="31">
<vertex x="-0.508" y="0.8509"/>
<vertex x="-0.508" y="-0.8509"/>
<vertex x="0.508" y="-0.8509"/>
<vertex x="0.508" y="0.8509"/>
</polygon>
<wire x1="-1.8034" y1="0.6858" x2="-1.8034" y2="0.8382" width="0.1524" layer="21" curve="-214"/>
<wire x1="-1.0668" y1="-1.0668" x2="1.0668" y2="-1.0668" width="0.1524" layer="51"/>
<wire x1="1.0668" y1="-1.0668" x2="1.0668" y2="1.0668" width="0.1524" layer="51"/>
<wire x1="1.0668" y1="1.0668" x2="-1.0668" y2="1.0668" width="0.1524" layer="51"/>
<wire x1="-1.0668" y1="1.0668" x2="-1.0668" y2="-1.0668" width="0.1524" layer="51"/>
<text x="-3.2766" y="-0.635" size="1.27" layer="25" ratio="6" rot="SR0">&gt;Name</text>
</package>
<package name="DSG_8-L">
<smd name="1" x="-0.9525" y="0.762" dx="0.6096" dy="0.3048" layer="1"/>
<smd name="2" x="-0.9525" y="0.254" dx="0.6096" dy="0.3048" layer="1"/>
<smd name="3" x="-0.9525" y="-0.254" dx="0.6096" dy="0.3048" layer="1"/>
<smd name="4" x="-0.9525" y="-0.762" dx="0.6096" dy="0.3048" layer="1"/>
<smd name="5" x="0.9525" y="-0.762" dx="0.6096" dy="0.3048" layer="1"/>
<smd name="6" x="0.9525" y="-0.254" dx="0.6096" dy="0.3048" layer="1"/>
<smd name="7" x="0.9525" y="0.254" dx="0.6096" dy="0.3048" layer="1"/>
<smd name="8" x="0.9525" y="0.762" dx="0.6096" dy="0.3048" layer="1"/>
<smd name="9" x="0" y="0" dx="1.016" dy="1.7018" layer="1" cream="no"/>
<polygon width="0.0254" layer="31">
<vertex x="-0.508" y="0.8509"/>
<vertex x="-0.508" y="-0.8509"/>
<vertex x="0.508" y="-0.8509"/>
<vertex x="0.508" y="0.8509"/>
</polygon>
<wire x1="-1.6002" y1="0.6858" x2="-1.6002" y2="0.8382" width="0.1524" layer="21" curve="-214"/>
<wire x1="-1.0668" y1="-1.0668" x2="1.0668" y2="-1.0668" width="0.1524" layer="51"/>
<wire x1="1.0668" y1="-1.0668" x2="1.0668" y2="1.0668" width="0.1524" layer="51"/>
<wire x1="1.0668" y1="1.0668" x2="-1.0668" y2="1.0668" width="0.1524" layer="51"/>
<wire x1="-1.0668" y1="1.0668" x2="-1.0668" y2="-1.0668" width="0.1524" layer="51"/>
<text x="-3.2766" y="-0.635" size="1.27" layer="25" ratio="6" rot="SR0">&gt;Name</text>
</package>
</packages>
<symbols>
<symbol name="DRV8837_DSG_8">
<pin name="VM" x="2.54" y="0" length="middle" direction="pas"/>
<pin name="OUT1" x="2.54" y="-2.54" length="middle" direction="out"/>
<pin name="OUT2" x="2.54" y="-5.08" length="middle" direction="out"/>
<pin name="GND" x="2.54" y="-7.62" length="middle" direction="pwr"/>
<pin name="IN2" x="63.5" y="-10.16" length="middle" direction="in" rot="R180"/>
<pin name="IN1" x="63.5" y="-7.62" length="middle" direction="in" rot="R180"/>
<pin name="!SLEEP" x="63.5" y="-5.08" length="middle" direction="in" rot="R180"/>
<pin name="VCC" x="63.5" y="-2.54" length="middle" direction="pwr" rot="R180"/>
<pin name="EPAD" x="63.5" y="0" length="middle" direction="pas" rot="R180"/>
<wire x1="7.62" y1="5.08" x2="7.62" y2="-15.24" width="0.1524" layer="94"/>
<wire x1="7.62" y1="-15.24" x2="58.42" y2="-15.24" width="0.1524" layer="94"/>
<wire x1="58.42" y1="-15.24" x2="58.42" y2="5.08" width="0.1524" layer="94"/>
<wire x1="58.42" y1="5.08" x2="7.62" y2="5.08" width="0.1524" layer="94"/>
<text x="28.2956" y="9.1186" size="2.0828" layer="95" ratio="6" rot="SR0">&gt;Name</text>
<text x="27.6606" y="6.5786" size="2.0828" layer="96" ratio="6" rot="SR0">&gt;Value</text>
</symbol>
</symbols>
<devicesets>
<deviceset name="DRV8837DSGR" prefix="U">
<gates>
<gate name="A" symbol="DRV8837_DSG_8" x="0" y="0"/>
</gates>
<devices>
<device name="" package="DSG_8">
<connects>
<connect gate="A" pin="!SLEEP" pad="7"/>
<connect gate="A" pin="EPAD" pad="9"/>
<connect gate="A" pin="GND" pad="4"/>
<connect gate="A" pin="IN1" pad="6"/>
<connect gate="A" pin="IN2" pad="5"/>
<connect gate="A" pin="OUT1" pad="2"/>
<connect gate="A" pin="OUT2" pad="3"/>
<connect gate="A" pin="VCC" pad="8"/>
<connect gate="A" pin="VM" pad="1"/>
</connects>
<technologies>
<technology name="">
<attribute name="MANUFACTURER_PART_NUMBER" value="DRV8837DSGR" constant="no"/>
<attribute name="VENDOR" value="Texas Instruments" constant="no"/>
</technology>
</technologies>
</device>
<device name="DSG_8-M" package="DSG_8-M">
<connects>
<connect gate="A" pin="!SLEEP" pad="7"/>
<connect gate="A" pin="EPAD" pad="9"/>
<connect gate="A" pin="GND" pad="4"/>
<connect gate="A" pin="IN1" pad="6"/>
<connect gate="A" pin="IN2" pad="5"/>
<connect gate="A" pin="OUT1" pad="2"/>
<connect gate="A" pin="OUT2" pad="3"/>
<connect gate="A" pin="VCC" pad="8"/>
<connect gate="A" pin="VM" pad="1"/>
</connects>
<technologies>
<technology name="">
<attribute name="MANUFACTURER_PART_NUMBER" value="DRV8837DSGR" constant="no"/>
<attribute name="VENDOR" value="Texas Instruments" constant="no"/>
</technology>
</technologies>
</device>
<device name="DSG_8-L" package="DSG_8-L">
<connects>
<connect gate="A" pin="!SLEEP" pad="7"/>
<connect gate="A" pin="EPAD" pad="9"/>
<connect gate="A" pin="GND" pad="4"/>
<connect gate="A" pin="IN1" pad="6"/>
<connect gate="A" pin="IN2" pad="5"/>
<connect gate="A" pin="OUT1" pad="2"/>
<connect gate="A" pin="OUT2" pad="3"/>
<connect gate="A" pin="VCC" pad="8"/>
<connect gate="A" pin="VM" pad="1"/>
</connects>
<technologies>
<technology name="">
<attribute name="MANUFACTURER_PART_NUMBER" value="DRV8837DSGR" constant="no"/>
<attribute name="VENDOR" value="Texas Instruments" constant="no"/>
</technology>
</technologies>
</device>
</devices>
</deviceset>
</devicesets>
</library>
</drawing>
</eagle>
